Maquinas em verilog/moore_FFD_v/simulation/qsim/MooreMachine.msim.vcd
$comment
	File created using the following command:
		vcd file MooreMachine.msim.vcd -direction
$end
$date
	Fri Apr 18 15:57:02 2025
$end
$version
	ModelSim Version 2020.1
$end
$timescale
	1ps
$end

$scope module MooreMachine_vlg_vec_tst $end
$var reg 1 ! clk $end
$var reg 1 " rst $end
$var reg 1 # x $end
$var wire 1 $ y $end

$scope module i1 $end
$var wire 1 % gnd $end
$var wire 1 & vcc $end
$var wire 1 ' unknown $end
$var tri1 1 ( devclrn $end
$var tri1 1 ) devpor $end
$var tri1 1 * devoe $end
$var wire 1 + ~QUARTUS_CREATED_GND~I_combout $end
$var wire 1 , clk~input_o $end
$var wire 1 - clk~inputCLKENA0_outclk $end
$var wire 1 . x~input_o $end
$var wire 1 / Selector0~0_combout $end
$var wire 1 0 rst~input_o $end
$var wire 1 1 state.a~q $end
$var wire 1 2 Selector1~0_combout $end
$var wire 1 3 state.b~q $end
$var wire 1 4 state~12_combout $end
$var wire 1 5 state.c~q $end
$var wire 1 6 Selector2~0_combout $end
$var wire 1 7 state.d~q $end
$var wire 1 8 state~11_combout $end
$var wire 1 9 state.e~q $end
$upscope $end
$upscope $end
$enddefinitions $end
#0
$dumpvars
0!
1"
0#
0$
0%
1&
x'
1(
1)
1*
0+
0,
0-
0.
0/
10
01
02
03
04
05
06
07
08
09
$end
#10000
1!
1,
1-
#20000
0!
0,
0-
#30000
1!
1,
1-
#40000
0!
0,
0-
#50000
1!
1,
1-
#60000
0!
0,
0-
#70000
1!
1,
1-
#80000
0!
0,
0-
#90000
1!
1,
1-
#100000
1#
0!
1.
0,
0-
12
1/
#110000
1!
1,
1-
#120000
0!
0,
0-
11
13
14
02
#130000
1!
1,
1-
#140000
0!
0,
0-
03
15
16
04
#150000
1!
1,
1-
#160000
0!
0,
0-
05
17
#170000
1!
1,
1-
#180000
0!
0,
0-
#190000
1!
1,
1-
#200000
0#
0!
0.
0,
0-
18
06
#210000
1!
1,
1-
#220000
0!
0,
0-
07
19
1$
08
0/
#230000
1!
1,
1-
#240000
0!
0,
0-
01
09
0$
#250000
1!
1,
1-
#260000
0!
0,
0-
#270000
1!
1,
1-
#280000
0!
0,
0-
#290000
1!
1,
1-
#300000
0!
0,
0-
#310000
1!
1,
1-
#320000
1#
0!
1.
0,
0-
12
1/
#330000
1!
1,
1-
#340000
0#
0!
0.
0,
0-
02
0/
11
13
#350000
1!
1,
1-
#360000
0!
0,
0-
01
03
#370000
1!
1,
1-
#380000
0"
0!
00
0,
0-
#390000
1!
1,
1-
#400000
0!
0,
0-
#410000
1#
1!
1.
1,
1-
12
1/
#420000
0!
0,
0-
#430000
1!
1,
1-
#440000
0!
0,
0-
#450000
1!
1,
1-
#460000
0!
0,
0-
#470000
0#
1!
0.
1,
1-
02
0/
#480000
1"
0!
10
0,
0-
#490000
1!
1,
1-
#500000
0!
0,
0-
#510000
1!
1,
1-
#520000
0!
0,
0-
#530000
1!
1,
1-
#540000
0!
0,
0-
#550000
1!
1,
1-
#560000
0!
0,
0-
#570000
1#
1!
1.
1,
1-
12
1/
#580000
0!
0,
0-
11
13
14
02
#590000
1!
1,
1-
#600000
0!
0,
0-
03
15
16
04
#610000
1!
1,
1-
#620000
0!
0,
0-
05
17
#630000
1!
1,
1-
#640000
0!
0,
0-
#650000
1!
1,
1-
#660000
0!
0,
0-
#670000
1!
1,
1-
#680000
0!
0,
0-
#690000
1!
1,
1-
#700000
0!
0,
0-
#710000
1!
1,
1-
#720000
0!
0,
0-
#730000
1!
1,
1-
#740000
0!
0,
0-
#750000
1!
1,
1-
#760000
0#
0!
0.
0,
0-
18
06
#770000
1!
1,
1-
#780000
0!
0,
0-
07
19
1$
08
0/
#790000
1!
1,
1-
#800000
0!
0,
0-
01
09
0$
#810000
1!
1,
1-
#820000
0!
0,
0-
#830000
1!
1,
1-
#840000
0!
0,
0-
#850000
1!
1,
1-
#860000
0!
0,
0-
#870000
1!
1,
1-
#880000
0!
0,
0-
#890000
1!
1,
1-
#900000
0!
0,
0-
#910000
1!
1,
1-
#920000
0!
0,
0-
#930000
1!
1,
1-
#940000
0!
0,
0-
#950000
1!
1,
1-
#960000
0!
0,
0-
#970000
1!
1,
1-
#980000
0!
0,
0-
#990000
1!
1,
1-
