Diagramas de sequencia/mealy_machine_FFJK_bd/simulation/qsim/state_mealy.msim.vcd
$comment
	File created using the following command:
		vcd file state_mealy.msim.vcd -direction
$end
$date
	Fri Apr 18 14:55:52 2025
$end
$version
	ModelSim Version 2020.1
$end
$timescale
	1ps
$end

$scope module state_mealy_vlg_vec_tst $end
$var reg 1 ! clk $end
$var reg 1 " x $end
$var wire 1 # y $end

$scope module i1 $end
$var wire 1 $ gnd $end
$var wire 1 % vcc $end
$var wire 1 & unknown $end
$var tri1 1 ' devclrn $end
$var tri1 1 ( devpor $end
$var tri1 1 ) devoe $end
$var wire 1 * ~QUARTUS_CREATED_GND~I_combout $end
$var wire 1 + clk~input_o $end
$var wire 1 , clk~inputCLKENA0_outclk $end
$var wire 1 - x~input_o $end
$var wire 1 . JK1~0_combout $end
$var wire 1 / JK1~q $end
$var wire 1 0 JK0~0_combout $end
$var wire 1 1 JK0~q $end
$var wire 1 2 inst3~combout $end
$upscope $end
$upscope $end
$enddefinitions $end
#0
$dumpvars
0!
0"
0#
0$
1%
x&
1'
1(
1)
0*
0+
0,
0-
0.
0/
00
01
02
$end
#10000
1!
1+
1,
#20000
0!
0+
0,
#30000
1!
1+
1,
#40000
0!
0+
0,
#50000
1!
1+
1,
#60000
0!
0+
0,
#70000
1!
1+
1,
#80000
0!
0+
0,
#90000
1!
1+
1,
#100000
0!
0+
0,
#110000
1!
1+
1,
#120000
0!
0+
0,
#130000
1"
1!
1-
1+
1,
10
#140000
0!
0+
0,
#150000
1!
1+
1,
11
00
1.
#160000
0!
0+
0,
#170000
1!
1+
1,
01
1/
10
#180000
0!
0+
0,
#190000
1!
1+
1,
11
#200000
0!
0+
0,
#210000
1!
1+
1,
#220000
0!
0+
0,
#230000
0"
1!
0-
1+
1,
12
00
0.
1#
#240000
0!
0+
0,
#250000
1!
1+
1,
01
0/
02
0#
#260000
0!
0+
0,
#270000
1!
1+
1,
#280000
0!
0+
0,
#290000
1!
1+
1,
#300000
0!
0+
0,
#310000
1!
1+
1,
#320000
0!
0+
0,
#330000
1!
1+
1,
#340000
1"
0!
1-
0+
0,
10
#350000
1!
1+
1,
11
00
1.
#360000
0"
0!
0-
0+
0,
0.
#370000
1!
1+
1,
01
#380000
0!
0+
0,
#390000
1!
1+
1,
#400000
0!
0+
0,
#410000
1!
1+
1,
#420000
0!
0+
0,
#430000
1"
1!
1-
1+
1,
10
#440000
0!
0+
0,
#450000
1!
1+
1,
11
00
1.
#460000
0!
0+
0,
#470000
1!
1+
1,
01
1/
10
#480000
0!
0+
0,
#490000
1!
1+
1,
11
#500000
0!
0+
0,
#510000
1!
1+
1,
#520000
0!
0+
0,
#530000
1!
1+
1,
#540000
0!
0+
0,
#550000
1!
1+
1,
#560000
0!
0+
0,
#570000
0"
1!
0-
1+
1,
12
00
0.
1#
#580000
0!
0+
0,
#590000
1!
1+
1,
01
0/
02
0#
#600000
0!
0+
0,
#610000
1!
1+
1,
#620000
1"
0!
1-
0+
0,
10
#630000
1!
1+
1,
11
00
1.
#640000
0!
0+
0,
#650000
1!
1+
1,
01
1/
10
#660000
0!
0+
0,
#670000
0"
1!
0-
1+
1,
00
0.
11
12
1#
#680000
0!
0+
0,
#690000
1!
1+
1,
01
0/
02
0#
#700000
0!
0+
0,
#710000
1!
1+
1,
#720000
0!
0+
0,
#730000
1!
1+
1,
#740000
0!
0+
0,
#750000
1!
1+
1,
#760000
0!
0+
0,
#770000
1!
1+
1,
#780000
0!
0+
0,
#790000
1!
1+
1,
#800000
0!
0+
0,
#810000
1!
1+
1,
#820000
0!
0+
0,
#830000
1!
1+
1,
#840000
0!
0+
0,
#850000
1!
1+
1,
#860000
0!
0+
0,
#870000
1!
1+
1,
#880000
0!
0+
0,
#890000
1!
1+
1,
#900000
0!
0+
0,
#910000
1!
1+
1,
#920000
0!
0+
0,
#930000
1!
1+
1,
#940000
0!
0+
0,
#950000
1!
1+
1,
#960000
0!
0+
0,
#970000
1!
1+
1,
#980000
0!
0+
0,
#990000
1!
1+
1,
